Analysis & Synthesis report for otsuandhog
Thu Nov 23 16:17:46 2017
Quartus II 64-Bit Version 14.1.0 Build 186 12/03/2014 SJ Web Edition


---------------------
; Table of Contents ;
---------------------
  1. Legal Notice
  2. Analysis & Synthesis Summary
  3. Analysis & Synthesis Settings
  4. Parallel Compilation
  5. Analysis & Synthesis Source Files Read
  6. Analysis & Synthesis Resource Usage Summary
  7. Analysis & Synthesis Resource Utilization by Entity
  8. Registers Removed During Synthesis
  9. General Register Statistics
 10. Multiplexer Restructuring Statistics (Restructuring Performed)
 11. Parameter Settings for User Entity Instance: Top-level Entity: |histogramBins
 12. Parameter Settings for User Entity Instance: highbit:highbit
 13. Port Connectivity Checks: "highbit:highbit"
 14. Post-Synthesis Netlist Statistics for Top Partition
 15. Elapsed Time Per Partition
 16. Analysis & Synthesis Messages



----------------
; Legal Notice ;
----------------
Copyright (C) 1991-2014 Altera Corporation. All rights reserved.
Your use of Altera Corporation's design tools, logic functions 
and other software and tools, and its AMPP partner logic 
functions, and any output files from any of the foregoing 
(including device programming or simulation files), and any 
associated documentation or information are expressly subject 
to the terms and conditions of the Altera Program License 
Subscription Agreement, the Altera Quartus II License Agreement,
the Altera MegaCore Function License Agreement, or other 
applicable license agreement, including, without limitation, 
that your use is for the sole purpose of programming logic 
devices manufactured by Altera and sold by Altera or its 
authorized distributors.  Please refer to the applicable 
agreement for further details.



+---------------------------------------------------------------------------------+
; Analysis & Synthesis Summary                                                    ;
+------------------------------------+--------------------------------------------+
; Analysis & Synthesis Status        ; Successful - Thu Nov 23 16:17:46 2017      ;
; Quartus II 64-Bit Version          ; 14.1.0 Build 186 12/03/2014 SJ Web Edition ;
; Revision Name                      ; otsuandhog                                 ;
; Top-level Entity Name              ; histogramBins                              ;
; Family                             ; Cyclone IV GX                              ;
; Total logic elements               ; 611                                        ;
;     Total combinational functions  ; 611                                        ;
;     Dedicated logic registers      ; 76                                         ;
; Total registers                    ; 76                                         ;
; Total pins                         ; 220                                        ;
; Total virtual pins                 ; 0                                          ;
; Total memory bits                  ; 0                                          ;
; Embedded Multiplier 9-bit elements ; 0                                          ;
; Total GXB Receiver Channel PCS     ; 0                                          ;
; Total GXB Receiver Channel PMA     ; 0                                          ;
; Total GXB Transmitter Channel PCS  ; 0                                          ;
; Total GXB Transmitter Channel PMA  ; 0                                          ;
; Total PLLs                         ; 0                                          ;
+------------------------------------+--------------------------------------------+


+----------------------------------------------------------------------------------------------------------------------+
; Analysis & Synthesis Settings                                                                                        ;
+----------------------------------------------------------------------------+--------------------+--------------------+
; Option                                                                     ; Setting            ; Default Value      ;
+----------------------------------------------------------------------------+--------------------+--------------------+
; Top-level entity name                                                      ; histogramBins      ; otsuandhog         ;
; Family name                                                                ; Cyclone IV GX      ; Cyclone IV GX      ;
; Use smart compilation                                                      ; Off                ; Off                ;
; Enable parallel Assembler and TimeQuest Timing Analyzer during compilation ; On                 ; On                 ;
; Enable compact report table                                                ; Off                ; Off                ;
; Restructure Multiplexers                                                   ; Auto               ; Auto               ;
; Create Debugging Nodes for IP Cores                                        ; Off                ; Off                ;
; Preserve fewer node names                                                  ; On                 ; On                 ;
; Disable OpenCore Plus hardware evaluation                                  ; Off                ; Off                ;
; Verilog Version                                                            ; Verilog_2001       ; Verilog_2001       ;
; VHDL Version                                                               ; VHDL_1993          ; VHDL_1993          ;
; State Machine Processing                                                   ; Auto               ; Auto               ;
; Safe State Machine                                                         ; Off                ; Off                ;
; Extract Verilog State Machines                                             ; On                 ; On                 ;
; Extract VHDL State Machines                                                ; On                 ; On                 ;
; Ignore Verilog initial constructs                                          ; Off                ; Off                ;
; Iteration limit for constant Verilog loops                                 ; 5000               ; 5000               ;
; Iteration limit for non-constant Verilog loops                             ; 250                ; 250                ;
; Add Pass-Through Logic to Inferred RAMs                                    ; On                 ; On                 ;
; Infer RAMs from Raw Logic                                                  ; On                 ; On                 ;
; Parallel Synthesis                                                         ; On                 ; On                 ;
; DSP Block Balancing                                                        ; Auto               ; Auto               ;
; NOT Gate Push-Back                                                         ; On                 ; On                 ;
; Power-Up Don't Care                                                        ; On                 ; On                 ;
; Remove Redundant Logic Cells                                               ; Off                ; Off                ;
; Remove Duplicate Registers                                                 ; On                 ; On                 ;
; Ignore CARRY Buffers                                                       ; Off                ; Off                ;
; Ignore CASCADE Buffers                                                     ; Off                ; Off                ;
; Ignore GLOBAL Buffers                                                      ; Off                ; Off                ;
; Ignore ROW GLOBAL Buffers                                                  ; Off                ; Off                ;
; Ignore LCELL Buffers                                                       ; Off                ; Off                ;
; Ignore SOFT Buffers                                                        ; On                 ; On                 ;
; Limit AHDL Integers to 32 Bits                                             ; Off                ; Off                ;
; Optimization Technique                                                     ; Balanced           ; Balanced           ;
; Carry Chain Length                                                         ; 70                 ; 70                 ;
; Auto Carry Chains                                                          ; On                 ; On                 ;
; Auto Open-Drain Pins                                                       ; On                 ; On                 ;
; Perform WYSIWYG Primitive Resynthesis                                      ; Off                ; Off                ;
; Auto ROM Replacement                                                       ; On                 ; On                 ;
; Auto RAM Replacement                                                       ; On                 ; On                 ;
; Auto DSP Block Replacement                                                 ; On                 ; On                 ;
; Auto Shift Register Replacement                                            ; Auto               ; Auto               ;
; Allow Shift Register Merging across Hierarchies                            ; Auto               ; Auto               ;
; Auto Clock Enable Replacement                                              ; On                 ; On                 ;
; Strict RAM Replacement                                                     ; Off                ; Off                ;
; Allow Synchronous Control Signals                                          ; On                 ; On                 ;
; Force Use of Synchronous Clear Signals                                     ; Off                ; Off                ;
; Auto RAM Block Balancing                                                   ; On                 ; On                 ;
; Auto RAM to Logic Cell Conversion                                          ; Off                ; Off                ;
; Auto Resource Sharing                                                      ; Off                ; Off                ;
; Allow Any RAM Size For Recognition                                         ; Off                ; Off                ;
; Allow Any ROM Size For Recognition                                         ; Off                ; Off                ;
; Allow Any Shift Register Size For Recognition                              ; Off                ; Off                ;
; Use LogicLock Constraints during Resource Balancing                        ; On                 ; On                 ;
; Ignore translate_off and synthesis_off directives                          ; Off                ; Off                ;
; Timing-Driven Synthesis                                                    ; On                 ; On                 ;
; Report Parameter Settings                                                  ; On                 ; On                 ;
; Report Source Assignments                                                  ; On                 ; On                 ;
; Report Connectivity Checks                                                 ; On                 ; On                 ;
; Ignore Maximum Fan-Out Assignments                                         ; Off                ; Off                ;
; Synchronization Register Chain Length                                      ; 2                  ; 2                  ;
; PowerPlay Power Optimization During Synthesis                              ; Normal compilation ; Normal compilation ;
; HDL message level                                                          ; Level2             ; Level2             ;
; Suppress Register Optimization Related Messages                            ; Off                ; Off                ;
; Number of Removed Registers Reported in Synthesis Report                   ; 5000               ; 5000               ;
; Number of Swept Nodes Reported in Synthesis Report                         ; 5000               ; 5000               ;
; Number of Inverted Registers Reported in Synthesis Report                  ; 100                ; 100                ;
; Clock MUX Protection                                                       ; On                 ; On                 ;
; Auto Gated Clock Conversion                                                ; Off                ; Off                ;
; Block Design Naming                                                        ; Auto               ; Auto               ;
; SDC constraint protection                                                  ; Off                ; Off                ;
; Synthesis Effort                                                           ; Auto               ; Auto               ;
; Shift Register Replacement - Allow Asynchronous Clear Signal               ; On                 ; On                 ;
; Pre-Mapping Resynthesis Optimization                                       ; Off                ; Off                ;
; Analysis & Synthesis Message Level                                         ; Medium             ; Medium             ;
; Disable Register Merging Across Hierarchies                                ; Auto               ; Auto               ;
; Resource Aware Inference For Block RAM                                     ; On                 ; On                 ;
; Synthesis Seed                                                             ; 1                  ; 1                  ;
+----------------------------------------------------------------------------+--------------------+--------------------+


+------------------------------------------+
; Parallel Compilation                     ;
+----------------------------+-------------+
; Processors                 ; Number      ;
+----------------------------+-------------+
; Number detected on machine ; 4           ;
; Maximum allowed            ; 4           ;
;                            ;             ;
; Average used               ; 1.00        ;
; Maximum used               ; 4           ;
;                            ;             ;
; Usage by Processor         ; % Time Used ;
;     Processor 1            ; 100.0%      ;
;     Processors 2-4         ; < 0.1%      ;
+----------------------------+-------------+


+-------------------------------------------------------------------------------------------------------------------------------------------------------------------------------------------------+
; Analysis & Synthesis Source Files Read                                                                                                                                                          ;
+----------------------------------+-----------------+------------------------------+---------------------------------------------------------------------------------------------------+---------+
; File Name with User-Entered Path ; Used in Netlist ; File Type                    ; File Name with Absolute Path                                                                      ; Library ;
+----------------------------------+-----------------+------------------------------+---------------------------------------------------------------------------------------------------+---------+
; histogramBins.sv                 ; yes             ; User SystemVerilog HDL File  ; C:/Users/lincs/Desktop/[TG] 2017.2/tg-2017.2/OCR/Quartus II Project/otsu and hog/histogramBins.sv ;         ;
+----------------------------------+-----------------+------------------------------+---------------------------------------------------------------------------------------------------+---------+


+---------------------------------------------+
; Analysis & Synthesis Resource Usage Summary ;
+--------------------------+------------------+
; Resource                 ; Usage            ;
+--------------------------+------------------+
; I/O pins                 ; 220              ;
;                          ;                  ;
; DSP block 9-bit elements ; 0                ;
;                          ;                  ;
; Maximum fan-out node     ; rst~input        ;
; Maximum fan-out          ; 181              ;
; Total fan-out            ; 2367             ;
; Average fan-out          ; 2.10             ;
+--------------------------+------------------+


+-----------------------------------------------------------------------------------------------------------------------------------------------------------------------------------------+
; Analysis & Synthesis Resource Utilization by Entity                                                                                                                                     ;
+----------------------------+-------------------+--------------+-------------+--------------+---------+-----------+-----------+------+--------------+---------------------+--------------+
; Compilation Hierarchy Node ; LC Combinationals ; LC Registers ; Memory Bits ; DSP Elements ; DSP 9x9 ; DSP 18x18 ; DSP 36x36 ; Pins ; Virtual Pins ; Full Hierarchy Name ; Library Name ;
+----------------------------+-------------------+--------------+-------------+--------------+---------+-----------+-----------+------+--------------+---------------------+--------------+
; |histogramBins             ; 611 (611)         ; 76 (76)      ; 0           ; 0            ; 0       ; 0         ; 0         ; 220  ; 0            ; |histogramBins      ; work         ;
+----------------------------+-------------------+--------------+-------------+--------------+---------+-----------+-----------+------+--------------+---------------------+--------------+
Note: For table entries with two numbers listed, the numbers in parentheses indicate the number of resources of the given type used by the specific entity alone. The numbers listed outside of parentheses indicate the total resources of the given type used by the specific entity and all of its sub-entities in the hierarchy.


+--------------------------------------------------------------------------------+
; Registers Removed During Synthesis                                             ;
+---------------------------------------+----------------------------------------+
; Register name                         ; Reason for Removal                     ;
+---------------------------------------+----------------------------------------+
; step[3..7]                            ; Merged with step[2]                    ;
; step[2]                               ; Stuck at GND due to stuck port data_in ;
; Total Number of Removed Registers = 6 ;                                        ;
+---------------------------------------+----------------------------------------+


+------------------------------------------------------+
; General Register Statistics                          ;
+----------------------------------------------+-------+
; Statistic                                    ; Value ;
+----------------------------------------------+-------+
; Total registers                              ; 76    ;
; Number of registers using Synchronous Clear  ; 0     ;
; Number of registers using Synchronous Load   ; 0     ;
; Number of registers using Asynchronous Clear ; 0     ;
; Number of registers using Asynchronous Load  ; 0     ;
; Number of registers using Clock Enable       ; 24    ;
; Number of registers using Preset             ; 0     ;
+----------------------------------------------+-------+


+----------------------------------------------------------------------------------------------------------------------------------------------------+
; Multiplexer Restructuring Statistics (Restructuring Performed)                                                                                     ;
+--------------------+-----------+---------------+----------------------+------------------------+------------+--------------------------------------+
; Multiplexer Inputs ; Bus Width ; Baseline Area ; Area if Restructured ; Saving if Restructured ; Registered ; Example Multiplexer Output           ;
+--------------------+-----------+---------------+----------------------+------------------------+------------+--------------------------------------+
; 5:1                ; 8 bits    ; 24 LEs        ; 8 LEs                ; 16 LEs                 ; Yes        ; |histogramBins|io[4]                 ;
; 6:1                ; 12 bits   ; 48 LEs        ; 24 LEs               ; 24 LEs                 ; Yes        ; |histogramBins|address_b[11]~reg0    ;
; 7:1                ; 8 bits    ; 32 LEs        ; 16 LEs               ; 16 LEs                 ; Yes        ; |histogramBins|count[3]              ;
; 7:1                ; 7 bits    ; 28 LEs        ; 14 LEs               ; 14 LEs                 ; Yes        ; |histogramBins|jo[0]                 ;
; 8:1                ; 12 bits   ; 60 LEs        ; 24 LEs               ; 36 LEs                 ; Yes        ; |histogramBins|address_a[1]~reg0     ;
; 7:1                ; 8 bits    ; 32 LEs        ; 16 LEs               ; 16 LEs                 ; Yes        ; |histogramBins|lo[2]                 ;
; 7:1                ; 2 bits    ; 8 LEs         ; 4 LEs                ; 4 LEs                  ; Yes        ; |histogramBins|step[2]               ;
; 8:1                ; 8 bits    ; 40 LEs        ; 16 LEs               ; 24 LEs                 ; Yes        ; |histogramBins|ko[7]                 ;
; 9:1                ; 8 bits    ; 48 LEs        ; 16 LEs               ; 32 LEs                 ; Yes        ; |histogramBins|mo[3]                 ;
; 3:1                ; 8 bits    ; 16 LEs        ; 8 LEs                ; 8 LEs                  ; No         ; |histogramBins|lo                    ;
; 3:1                ; 7 bits    ; 14 LEs        ; 7 LEs                ; 7 LEs                  ; No         ; |histogramBins|jo                    ;
; 4:1                ; 2 bits    ; 4 LEs         ; 2 LEs                ; 2 LEs                  ; No         ; |histogramBins|toNormalizedHistogram ;
; 3:1                ; 8 bits    ; 16 LEs        ; 8 LEs                ; 8 LEs                  ; No         ; |histogramBins|ko                    ;
; 5:1                ; 7 bits    ; 21 LEs        ; 14 LEs               ; 7 LEs                  ; No         ; |histogramBins|jo                    ;
; 5:1                ; 7 bits    ; 21 LEs        ; 14 LEs               ; 7 LEs                  ; No         ; |histogramBins|io                    ;
; 7:1                ; 7 bits    ; 28 LEs        ; 14 LEs               ; 14 LEs                 ; No         ; |histogramBins|lo                    ;
; 9:1                ; 7 bits    ; 42 LEs        ; 14 LEs               ; 28 LEs                 ; No         ; |histogramBins|mo                    ;
+--------------------+-----------+---------------+----------------------+------------------------+------------+--------------------------------------+


+-------------------------------------------------------------------------------+
; Parameter Settings for User Entity Instance: Top-level Entity: |histogramBins ;
+----------------+-----------+--------------------------------------------------+
; Parameter Name ; Value     ; Type                                             ;
+----------------+-----------+--------------------------------------------------+
; SHIFT_AMOUNT   ; 27        ; Signed Integer                                   ;
; SHIFT_MASK     ; 134217727 ; Signed Integer                                   ;
+----------------+-----------+--------------------------------------------------+
Note: In order to hide this table in the UI and the text report file, please set the "Show Parameter Settings in Synthesis Report" option in "Analysis and Synthesis Settings -> More Settings" to "Off".


+--------------------------------------------------------------+
; Parameter Settings for User Entity Instance: highbit:highbit ;
+----------------+-------+-------------------------------------+
; Parameter Name ; Value ; Type                                ;
+----------------+-------+-------------------------------------+
; OUT_WIDTH      ; 8     ; Signed Integer                      ;
; IN_WIDTH       ; 128   ; Signed Integer                      ;
+----------------+-------+-------------------------------------+
Note: In order to hide this table in the UI and the text report file, please set the "Show Parameter Settings in Synthesis Report" option in "Analysis and Synthesis Settings -> More Settings" to "Off".


+----------------------------------------------------------------------------------------------------------------+
; Port Connectivity Checks: "highbit:highbit"                                                                    ;
+------+--------+----------+-------------------------------------------------------------------------------------+
; Port ; Type   ; Severity ; Details                                                                             ;
+------+--------+----------+-------------------------------------------------------------------------------------+
; out  ; Output ; Info     ; Connected to dangling logic. Logic that only feeds a dangling port will be removed. ;
+------+--------+----------+-------------------------------------------------------------------------------------+


+-----------------------------------------------------+
; Post-Synthesis Netlist Statistics for Top Partition ;
+-----------------------+-----------------------------+
; Type                  ; Count                       ;
+-----------------------+-----------------------------+
; boundary_port         ; 220                         ;
; cycloneiii_ff         ; 76                          ;
;     ENA               ; 24                          ;
;     plain             ; 52                          ;
; cycloneiii_lcell_comb ; 612                         ;
;     arith             ; 211                         ;
;         2 data inputs ; 64                          ;
;         3 data inputs ; 147                         ;
;     normal            ; 401                         ;
;         0 data inputs ; 1                           ;
;         1 data inputs ; 10                          ;
;         2 data inputs ; 69                          ;
;         3 data inputs ; 55                          ;
;         4 data inputs ; 266                         ;
;                       ;                             ;
; Max LUT depth         ; 42.50                       ;
; Average LUT depth     ; 22.18                       ;
+-----------------------+-----------------------------+


+-------------------------------+
; Elapsed Time Per Partition    ;
+----------------+--------------+
; Partition Name ; Elapsed Time ;
+----------------+--------------+
; Top            ; 00:00:02     ;
+----------------+--------------+


+-------------------------------+
; Analysis & Synthesis Messages ;
+-------------------------------+
Info: *******************************************************************
Info: Running Quartus II 64-Bit Analysis & Synthesis
    Info: Version 14.1.0 Build 186 12/03/2014 SJ Web Edition
    Info: Processing started: Thu Nov 23 16:17:26 2017
Info: Command: quartus_map --read_settings_files=on --write_settings_files=off otsuandhog -c otsuandhog
Info (20030): Parallel compilation is enabled and will use 4 of the 4 processors detected
Info (12021): Found 1 design units, including 1 entities, in source file testbench.sv
    Info (12023): Found entity 1: testBench
Info (12021): Found 1 design units, including 1 entities, in source file ram2port32bits.v
    Info (12023): Found entity 1: ram2port32bits
Info (12021): Found 1 design units, including 1 entities, in source file otsuthreshold.sv
    Info (12023): Found entity 1: otsuThreshold
Info (12021): Found 1 design units, including 1 entities, in source file histogramgrayscale.sv
    Info (12023): Found entity 1: histogramGrayScale
Info (12021): Found 2 design units, including 2 entities, in source file histogrambins.sv
    Info (12023): Found entity 1: histogramBins
    Info (12023): Found entity 2: highbit
Info (12127): Elaborating entity "histogramBins" for the top level hierarchy
Warning (10030): Net "atan2.data_a" at histogramBins.sv(17) has no driver or initial value, using a default initial value '0'
Warning (10030): Net "atan2.waddr_a" at histogramBins.sv(17) has no driver or initial value, using a default initial value '0'
Warning (10030): Net "getGradientMagnitude.data_a" at histogramBins.sv(17) has no driver or initial value, using a default initial value '0'
Warning (10030): Net "getGradientMagnitude.waddr_a" at histogramBins.sv(17) has no driver or initial value, using a default initial value '0'
Warning (10030): Net "histogramMap.data_a" at histogramBins.sv(20) has no driver or initial value, using a default initial value '0'
Warning (10030): Net "histogramMap.waddr_a" at histogramBins.sv(20) has no driver or initial value, using a default initial value '0'
Warning (10030): Net "atan2.we_a" at histogramBins.sv(17) has no driver or initial value, using a default initial value '0'
Warning (10030): Net "getGradientMagnitude.we_a" at histogramBins.sv(17) has no driver or initial value, using a default initial value '0'
Warning (10030): Net "histogramMap.we_a" at histogramBins.sv(20) has no driver or initial value, using a default initial value '0'
Warning (10034): Output port "featuresVector_out" at histogramBins.sv(9) has no driver
Info (10008): Verilog HDL or VHDL information: EDA Netlist Writer cannot regroup multidimensional array "histogram" into its bus
Info (12128): Elaborating entity "highbit" for hierarchy "highbit:highbit"
Warning (13024): Output pins are stuck at VCC or GND
    Warning (13410): Pin "featuresVector_out[0]" is stuck at GND
    Warning (13410): Pin "featuresVector_out[1]" is stuck at GND
    Warning (13410): Pin "featuresVector_out[2]" is stuck at GND
    Warning (13410): Pin "featuresVector_out[3]" is stuck at GND
    Warning (13410): Pin "featuresVector_out[4]" is stuck at GND
    Warning (13410): Pin "featuresVector_out[5]" is stuck at GND
    Warning (13410): Pin "featuresVector_out[6]" is stuck at GND
    Warning (13410): Pin "featuresVector_out[7]" is stuck at GND
    Warning (13410): Pin "featuresVector_out[8]" is stuck at GND
    Warning (13410): Pin "featuresVector_out[9]" is stuck at GND
    Warning (13410): Pin "featuresVector_out[10]" is stuck at GND
    Warning (13410): Pin "featuresVector_out[11]" is stuck at GND
    Warning (13410): Pin "featuresVector_out[12]" is stuck at GND
    Warning (13410): Pin "featuresVector_out[13]" is stuck at GND
    Warning (13410): Pin "featuresVector_out[14]" is stuck at GND
    Warning (13410): Pin "featuresVector_out[15]" is stuck at GND
    Warning (13410): Pin "featuresVector_out[16]" is stuck at GND
    Warning (13410): Pin "featuresVector_out[17]" is stuck at GND
    Warning (13410): Pin "featuresVector_out[18]" is stuck at GND
    Warning (13410): Pin "featuresVector_out[19]" is stuck at GND
    Warning (13410): Pin "featuresVector_out[20]" is stuck at GND
    Warning (13410): Pin "featuresVector_out[21]" is stuck at GND
    Warning (13410): Pin "featuresVector_out[22]" is stuck at GND
    Warning (13410): Pin "featuresVector_out[23]" is stuck at GND
    Warning (13410): Pin "featuresVector_out[24]" is stuck at GND
    Warning (13410): Pin "featuresVector_out[25]" is stuck at GND
    Warning (13410): Pin "featuresVector_out[26]" is stuck at GND
    Warning (13410): Pin "featuresVector_out[27]" is stuck at GND
    Warning (13410): Pin "featuresVector_out[28]" is stuck at GND
    Warning (13410): Pin "featuresVector_out[29]" is stuck at GND
    Warning (13410): Pin "featuresVector_out[30]" is stuck at GND
    Warning (13410): Pin "featuresVector_out[31]" is stuck at GND
    Warning (13410): Pin "featuresVector_out[32]" is stuck at GND
    Warning (13410): Pin "featuresVector_out[33]" is stuck at GND
    Warning (13410): Pin "featuresVector_out[34]" is stuck at GND
    Warning (13410): Pin "featuresVector_out[35]" is stuck at GND
    Warning (13410): Pin "featuresVector_out[36]" is stuck at GND
    Warning (13410): Pin "featuresVector_out[37]" is stuck at GND
    Warning (13410): Pin "featuresVector_out[38]" is stuck at GND
    Warning (13410): Pin "featuresVector_out[39]" is stuck at GND
    Warning (13410): Pin "featuresVector_out[40]" is stuck at GND
    Warning (13410): Pin "featuresVector_out[41]" is stuck at GND
    Warning (13410): Pin "featuresVector_out[42]" is stuck at GND
    Warning (13410): Pin "featuresVector_out[43]" is stuck at GND
    Warning (13410): Pin "featuresVector_out[44]" is stuck at GND
    Warning (13410): Pin "featuresVector_out[45]" is stuck at GND
    Warning (13410): Pin "featuresVector_out[46]" is stuck at GND
    Warning (13410): Pin "featuresVector_out[47]" is stuck at GND
    Warning (13410): Pin "featuresVector_out[48]" is stuck at GND
    Warning (13410): Pin "featuresVector_out[49]" is stuck at GND
    Warning (13410): Pin "featuresVector_out[50]" is stuck at GND
    Warning (13410): Pin "featuresVector_out[51]" is stuck at GND
    Warning (13410): Pin "featuresVector_out[52]" is stuck at GND
    Warning (13410): Pin "featuresVector_out[53]" is stuck at GND
    Warning (13410): Pin "featuresVector_out[54]" is stuck at GND
    Warning (13410): Pin "featuresVector_out[55]" is stuck at GND
    Warning (13410): Pin "featuresVector_out[56]" is stuck at GND
    Warning (13410): Pin "featuresVector_out[57]" is stuck at GND
    Warning (13410): Pin "featuresVector_out[58]" is stuck at GND
    Warning (13410): Pin "featuresVector_out[59]" is stuck at GND
    Warning (13410): Pin "featuresVector_out[60]" is stuck at GND
    Warning (13410): Pin "featuresVector_out[61]" is stuck at GND
    Warning (13410): Pin "featuresVector_out[62]" is stuck at GND
    Warning (13410): Pin "featuresVector_out[63]" is stuck at GND
    Warning (13410): Pin "featuresVector_out[64]" is stuck at GND
    Warning (13410): Pin "featuresVector_out[65]" is stuck at GND
    Warning (13410): Pin "featuresVector_out[66]" is stuck at GND
    Warning (13410): Pin "featuresVector_out[67]" is stuck at GND
    Warning (13410): Pin "featuresVector_out[68]" is stuck at GND
    Warning (13410): Pin "featuresVector_out[69]" is stuck at GND
    Warning (13410): Pin "featuresVector_out[70]" is stuck at GND
    Warning (13410): Pin "featuresVector_out[71]" is stuck at GND
    Warning (13410): Pin "featuresVector_out[72]" is stuck at GND
    Warning (13410): Pin "featuresVector_out[73]" is stuck at GND
    Warning (13410): Pin "featuresVector_out[74]" is stuck at GND
    Warning (13410): Pin "featuresVector_out[75]" is stuck at GND
    Warning (13410): Pin "featuresVector_out[76]" is stuck at GND
    Warning (13410): Pin "featuresVector_out[77]" is stuck at GND
    Warning (13410): Pin "featuresVector_out[78]" is stuck at GND
    Warning (13410): Pin "featuresVector_out[79]" is stuck at GND
    Warning (13410): Pin "featuresVector_out[80]" is stuck at GND
    Warning (13410): Pin "featuresVector_out[81]" is stuck at GND
    Warning (13410): Pin "featuresVector_out[82]" is stuck at GND
    Warning (13410): Pin "featuresVector_out[83]" is stuck at GND
    Warning (13410): Pin "featuresVector_out[84]" is stuck at GND
    Warning (13410): Pin "featuresVector_out[85]" is stuck at GND
    Warning (13410): Pin "featuresVector_out[86]" is stuck at GND
    Warning (13410): Pin "featuresVector_out[87]" is stuck at GND
    Warning (13410): Pin "featuresVector_out[88]" is stuck at GND
    Warning (13410): Pin "featuresVector_out[89]" is stuck at GND
    Warning (13410): Pin "featuresVector_out[90]" is stuck at GND
    Warning (13410): Pin "featuresVector_out[91]" is stuck at GND
    Warning (13410): Pin "featuresVector_out[92]" is stuck at GND
    Warning (13410): Pin "featuresVector_out[93]" is stuck at GND
    Warning (13410): Pin "featuresVector_out[94]" is stuck at GND
    Warning (13410): Pin "featuresVector_out[95]" is stuck at GND
    Warning (13410): Pin "featuresVector_out[96]" is stuck at GND
    Warning (13410): Pin "featuresVector_out[97]" is stuck at GND
    Warning (13410): Pin "featuresVector_out[98]" is stuck at GND
    Warning (13410): Pin "featuresVector_out[99]" is stuck at GND
    Warning (13410): Pin "featuresVector_out[100]" is stuck at GND
    Warning (13410): Pin "featuresVector_out[101]" is stuck at GND
    Warning (13410): Pin "featuresVector_out[102]" is stuck at GND
    Warning (13410): Pin "featuresVector_out[103]" is stuck at GND
    Warning (13410): Pin "featuresVector_out[104]" is stuck at GND
    Warning (13410): Pin "featuresVector_out[105]" is stuck at GND
    Warning (13410): Pin "featuresVector_out[106]" is stuck at GND
    Warning (13410): Pin "featuresVector_out[107]" is stuck at GND
    Warning (13410): Pin "featuresVector_out[108]" is stuck at GND
    Warning (13410): Pin "featuresVector_out[109]" is stuck at GND
    Warning (13410): Pin "featuresVector_out[110]" is stuck at GND
    Warning (13410): Pin "featuresVector_out[111]" is stuck at GND
    Warning (13410): Pin "featuresVector_out[112]" is stuck at GND
    Warning (13410): Pin "featuresVector_out[113]" is stuck at GND
    Warning (13410): Pin "featuresVector_out[114]" is stuck at GND
    Warning (13410): Pin "featuresVector_out[115]" is stuck at GND
    Warning (13410): Pin "featuresVector_out[116]" is stuck at GND
    Warning (13410): Pin "featuresVector_out[117]" is stuck at GND
    Warning (13410): Pin "featuresVector_out[118]" is stuck at GND
    Warning (13410): Pin "featuresVector_out[119]" is stuck at GND
    Warning (13410): Pin "featuresVector_out[120]" is stuck at GND
    Warning (13410): Pin "featuresVector_out[121]" is stuck at GND
    Warning (13410): Pin "featuresVector_out[122]" is stuck at GND
    Warning (13410): Pin "featuresVector_out[123]" is stuck at GND
    Warning (13410): Pin "featuresVector_out[124]" is stuck at GND
    Warning (13410): Pin "featuresVector_out[125]" is stuck at GND
    Warning (13410): Pin "featuresVector_out[126]" is stuck at GND
    Warning (13410): Pin "featuresVector_out[127]" is stuck at GND
Info (286030): Timing-Driven Synthesis is running
Info (16010): Generating hard_block partition "hard_block:auto_generated_inst"
    Info (16011): Adding 0 node(s), including 0 DDIO, 0 PLL, 0 transceiver and 0 LCELL
Warning (21074): Design contains 64 input pin(s) that do not drive logic
    Warning (15610): No output dependent on input pin "q_a[0]"
    Warning (15610): No output dependent on input pin "q_a[1]"
    Warning (15610): No output dependent on input pin "q_a[2]"
    Warning (15610): No output dependent on input pin "q_a[3]"
    Warning (15610): No output dependent on input pin "q_a[4]"
    Warning (15610): No output dependent on input pin "q_a[5]"
    Warning (15610): No output dependent on input pin "q_a[6]"
    Warning (15610): No output dependent on input pin "q_a[7]"
    Warning (15610): No output dependent on input pin "q_a[8]"
    Warning (15610): No output dependent on input pin "q_a[9]"
    Warning (15610): No output dependent on input pin "q_a[10]"
    Warning (15610): No output dependent on input pin "q_a[11]"
    Warning (15610): No output dependent on input pin "q_a[12]"
    Warning (15610): No output dependent on input pin "q_a[13]"
    Warning (15610): No output dependent on input pin "q_a[14]"
    Warning (15610): No output dependent on input pin "q_a[15]"
    Warning (15610): No output dependent on input pin "q_a[16]"
    Warning (15610): No output dependent on input pin "q_a[17]"
    Warning (15610): No output dependent on input pin "q_a[18]"
    Warning (15610): No output dependent on input pin "q_a[19]"
    Warning (15610): No output dependent on input pin "q_a[20]"
    Warning (15610): No output dependent on input pin "q_a[21]"
    Warning (15610): No output dependent on input pin "q_a[22]"
    Warning (15610): No output dependent on input pin "q_a[23]"
    Warning (15610): No output dependent on input pin "q_a[24]"
    Warning (15610): No output dependent on input pin "q_a[25]"
    Warning (15610): No output dependent on input pin "q_a[26]"
    Warning (15610): No output dependent on input pin "q_a[27]"
    Warning (15610): No output dependent on input pin "q_a[28]"
    Warning (15610): No output dependent on input pin "q_a[29]"
    Warning (15610): No output dependent on input pin "q_a[30]"
    Warning (15610): No output dependent on input pin "q_a[31]"
    Warning (15610): No output dependent on input pin "q_b[0]"
    Warning (15610): No output dependent on input pin "q_b[1]"
    Warning (15610): No output dependent on input pin "q_b[2]"
    Warning (15610): No output dependent on input pin "q_b[3]"
    Warning (15610): No output dependent on input pin "q_b[4]"
    Warning (15610): No output dependent on input pin "q_b[5]"
    Warning (15610): No output dependent on input pin "q_b[6]"
    Warning (15610): No output dependent on input pin "q_b[7]"
    Warning (15610): No output dependent on input pin "q_b[8]"
    Warning (15610): No output dependent on input pin "q_b[9]"
    Warning (15610): No output dependent on input pin "q_b[10]"
    Warning (15610): No output dependent on input pin "q_b[11]"
    Warning (15610): No output dependent on input pin "q_b[12]"
    Warning (15610): No output dependent on input pin "q_b[13]"
    Warning (15610): No output dependent on input pin "q_b[14]"
    Warning (15610): No output dependent on input pin "q_b[15]"
    Warning (15610): No output dependent on input pin "q_b[16]"
    Warning (15610): No output dependent on input pin "q_b[17]"
    Warning (15610): No output dependent on input pin "q_b[18]"
    Warning (15610): No output dependent on input pin "q_b[19]"
    Warning (15610): No output dependent on input pin "q_b[20]"
    Warning (15610): No output dependent on input pin "q_b[21]"
    Warning (15610): No output dependent on input pin "q_b[22]"
    Warning (15610): No output dependent on input pin "q_b[23]"
    Warning (15610): No output dependent on input pin "q_b[24]"
    Warning (15610): No output dependent on input pin "q_b[25]"
    Warning (15610): No output dependent on input pin "q_b[26]"
    Warning (15610): No output dependent on input pin "q_b[27]"
    Warning (15610): No output dependent on input pin "q_b[28]"
    Warning (15610): No output dependent on input pin "q_b[29]"
    Warning (15610): No output dependent on input pin "q_b[30]"
    Warning (15610): No output dependent on input pin "q_b[31]"
Info (21057): Implemented 832 device resources after synthesis - the final resource count might be different
    Info (21058): Implemented 67 input pins
    Info (21059): Implemented 153 output pins
    Info (21061): Implemented 612 logic cells
Info: Quartus II 64-Bit Analysis & Synthesis was successful. 0 errors, 204 warnings
    Info: Peak virtual memory: 1100 megabytes
    Info: Processing ended: Thu Nov 23 16:17:46 2017
    Info: Elapsed time: 00:00:20
    Info: Total CPU time (on all processors): 00:00:31


