GoodImg/Bmp/Sample001/img001-00014
GoodImg/Bmp/Sample001/img001-00021
GoodImg/Bmp/Sample001/img001-00022
GoodImg/Bmp/Sample001/img001-00024
GoodImg/Bmp/Sample001/img001-00027
GoodImg/Bmp/Sample001/img001-00036
GoodImg/Bmp/Sample001/img001-00051
GoodImg/Bmp/Sample001/img001-00057
GoodImg/Bmp/Sample001/img001-00058
GoodImg/Bmp/Sample001/img001-00069
GoodImg/Bmp/Sample001/img001-00081
GoodImg/Bmp/Sample001/img001-00087
GoodImg/Bmp/Sample001/img001-00095
GoodImg/Bmp/Sample001/img001-00096
GoodImg/Bmp/Sample001/img001-00104
GoodImg/Bmp/Sample002/img002-00005
GoodImg/Bmp/Sample002/img002-00014
GoodImg/Bmp/Sample002/img002-00015
GoodImg/Bmp/Sample002/img002-00019
GoodImg/Bmp/Sample002/img002-00026
GoodImg/Bmp/Sample002/img002-00036
GoodImg/Bmp/Sample002/img002-00037
GoodImg/Bmp/Sample002/img002-00045
GoodImg/Bmp/Sample002/img002-00052
GoodImg/Bmp/Sample002/img002-00053
GoodImg/Bmp/Sample002/img002-00055
GoodImg/Bmp/Sample002/img002-00057
GoodImg/Bmp/Sample002/img002-00058
GoodImg/Bmp/Sample002/img002-00061
GoodImg/Bmp/Sample002/img002-00076
GoodImg/Bmp/Sample003/img003-00005
GoodImg/Bmp/Sample003/img003-00012
GoodImg/Bmp/Sample003/img003-00016
GoodImg/Bmp/Sample003/img003-00027
GoodImg/Bmp/Sample003/img003-00029
GoodImg/Bmp/Sample003/img003-00030
GoodImg/Bmp/Sample003/img003-00031
GoodImg/Bmp/Sample003/img003-00035
GoodImg/Bmp/Sample003/img003-00036
GoodImg/Bmp/Sample003/img003-00042
GoodImg/Bmp/Sample003/img003-00044
GoodImg/Bmp/Sample003/img003-00057
GoodImg/Bmp/Sample003/img003-00058
GoodImg/Bmp/Sample003/img003-00068
GoodImg/Bmp/Sample003/img003-00069
GoodImg/Bmp/Sample004/img004-00002
GoodImg/Bmp/Sample004/img004-00011
GoodImg/Bmp/Sample004/img004-00015
GoodImg/Bmp/Sample004/img004-00016
GoodImg/Bmp/Sample004/img004-00018
GoodImg/Bmp/Sample004/img004-00020
GoodImg/Bmp/Sample004/img004-00023
GoodImg/Bmp/Sample004/img004-00027
GoodImg/Bmp/Sample004/img004-00029
GoodImg/Bmp/Sample004/img004-00030
GoodImg/Bmp/Sample004/img004-00035
GoodImg/Bmp/Sample004/img004-00038
GoodImg/Bmp/Sample004/img004-00044
GoodImg/Bmp/Sample004/img004-00048
GoodImg/Bmp/Sample004/img004-00049
GoodImg/Bmp/Sample005/img005-00005
GoodImg/Bmp/Sample005/img005-00006
GoodImg/Bmp/Sample005/img005-00008
GoodImg/Bmp/Sample005/img005-00009
GoodImg/Bmp/Sample005/img005-00010
GoodImg/Bmp/Sample005/img005-00014
GoodImg/Bmp/Sample005/img005-00017
GoodImg/Bmp/Sample005/img005-00026
GoodImg/Bmp/Sample005/img005-00032
GoodImg/Bmp/Sample005/img005-00033
GoodImg/Bmp/Sample005/img005-00035
GoodImg/Bmp/Sample005/img005-00039
GoodImg/Bmp/Sample005/img005-00040
GoodImg/Bmp/Sample005/img005-00045
GoodImg/Bmp/Sample005/img005-00046
GoodImg/Bmp/Sample006/img006-00010
GoodImg/Bmp/Sample006/img006-00019
GoodImg/Bmp/Sample006/img006-00026
GoodImg/Bmp/Sample006/img006-00031
GoodImg/Bmp/Sample006/img006-00035
GoodImg/Bmp/Sample006/img006-00037
GoodImg/Bmp/Sample006/img006-00039
GoodImg/Bmp/Sample006/img006-00040
GoodImg/Bmp/Sample006/img006-00045
GoodImg/Bmp/Sample006/img006-00046
GoodImg/Bmp/Sample006/img006-00047
GoodImg/Bmp/Sample006/img006-00048
GoodImg/Bmp/Sample006/img006-00049
GoodImg/Bmp/Sample006/img006-00056
GoodImg/Bmp/Sample006/img006-00062
GoodImg/Bmp/Sample007/img007-00006
GoodImg/Bmp/Sample007/img007-00010
GoodImg/Bmp/Sample007/img007-00013
GoodImg/Bmp/Sample007/img007-00018
GoodImg/Bmp/Sample007/img007-00022
GoodImg/Bmp/Sample007/img007-00034
GoodImg/Bmp/Sample007/img007-00037
GoodImg/Bmp/Sample007/img007-00038
GoodImg/Bmp/Sample007/img007-00048
GoodImg/Bmp/Sample007/img007-00050
GoodImg/Bmp/Sample007/img007-00053
GoodImg/Bmp/Sample007/img007-00054
GoodImg/Bmp/Sample007/img007-00055
GoodImg/Bmp/Sample007/img007-00057
GoodImg/Bmp/Sample007/img007-00063
GoodImg/Bmp/Sample008/img008-00005
GoodImg/Bmp/Sample008/img008-00008
GoodImg/Bmp/Sample008/img008-00016
GoodImg/Bmp/Sample008/img008-00018
GoodImg/Bmp/Sample008/img008-00019
GoodImg/Bmp/Sample008/img008-00022
GoodImg/Bmp/Sample008/img008-00024
GoodImg/Bmp/Sample008/img008-00030
GoodImg/Bmp/Sample008/img008-00033
GoodImg/Bmp/Sample008/img008-00038
GoodImg/Bmp/Sample008/img008-00039
GoodImg/Bmp/Sample008/img008-00040
GoodImg/Bmp/Sample008/img008-00042
GoodImg/Bmp/Sample008/img008-00045
GoodImg/Bmp/Sample008/img008-00047
GoodImg/Bmp/Sample009/img009-00001
GoodImg/Bmp/Sample009/img009-00005
GoodImg/Bmp/Sample009/img009-00006
GoodImg/Bmp/Sample009/img009-00010
GoodImg/Bmp/Sample009/img009-00012
GoodImg/Bmp/Sample009/img009-00014
GoodImg/Bmp/Sample009/img009-00016
GoodImg/Bmp/Sample009/img009-00017
GoodImg/Bmp/Sample009/img009-00021
GoodImg/Bmp/Sample009/img009-00022
GoodImg/Bmp/Sample009/img009-00024
GoodImg/Bmp/Sample009/img009-00025
GoodImg/Bmp/Sample009/img009-00027
GoodImg/Bmp/Sample009/img009-00028
GoodImg/Bmp/Sample009/img009-00032
GoodImg/Bmp/Sample010/img010-00001
GoodImg/Bmp/Sample010/img010-00004
GoodImg/Bmp/Sample010/img010-00006
GoodImg/Bmp/Sample010/img010-00007
GoodImg/Bmp/Sample010/img010-00010
GoodImg/Bmp/Sample010/img010-00013
GoodImg/Bmp/Sample010/img010-00014
GoodImg/Bmp/Sample010/img010-00015
GoodImg/Bmp/Sample010/img010-00018
GoodImg/Bmp/Sample010/img010-00019
GoodImg/Bmp/Sample010/img010-00022
GoodImg/Bmp/Sample010/img010-00024
GoodImg/Bmp/Sample010/img010-00025
GoodImg/Bmp/Sample010/img010-00027
GoodImg/Bmp/Sample010/img010-00028
GoodImg/Bmp/Sample011/img011-00044
GoodImg/Bmp/Sample011/img011-00055
GoodImg/Bmp/Sample011/img011-00065
GoodImg/Bmp/Sample011/img011-00068
GoodImg/Bmp/Sample011/img011-00104
GoodImg/Bmp/Sample011/img011-00132
GoodImg/Bmp/Sample011/img011-00135
GoodImg/Bmp/Sample011/img011-00188
GoodImg/Bmp/Sample011/img011-00271
GoodImg/Bmp/Sample011/img011-00299
GoodImg/Bmp/Sample011/img011-00320
GoodImg/Bmp/Sample011/img011-00386
GoodImg/Bmp/Sample011/img011-00411
GoodImg/Bmp/Sample011/img011-00474
GoodImg/Bmp/Sample011/img011-00558
GoodImg/Bmp/Sample012/img012-00009
GoodImg/Bmp/Sample012/img012-00010
GoodImg/Bmp/Sample012/img012-00019
GoodImg/Bmp/Sample012/img012-00030
GoodImg/Bmp/Sample012/img012-00037
GoodImg/Bmp/Sample012/img012-00039
GoodImg/Bmp/Sample012/img012-00052
GoodImg/Bmp/Sample012/img012-00055
GoodImg/Bmp/Sample012/img012-00085
GoodImg/Bmp/Sample012/img012-00095
GoodImg/Bmp/Sample012/img012-00096
GoodImg/Bmp/Sample012/img012-00100
GoodImg/Bmp/Sample012/img012-00101
GoodImg/Bmp/Sample012/img012-00102
GoodImg/Bmp/Sample012/img012-00112
GoodImg/Bmp/Sample013/img013-00023
GoodImg/Bmp/Sample013/img013-00044
GoodImg/Bmp/Sample013/img013-00049
GoodImg/Bmp/Sample013/img013-00052
GoodImg/Bmp/Sample013/img013-00053
GoodImg/Bmp/Sample013/img013-00064
GoodImg/Bmp/Sample013/img013-00066
GoodImg/Bmp/Sample013/img013-00072
GoodImg/Bmp/Sample013/img013-00093
GoodImg/Bmp/Sample013/img013-00101
GoodImg/Bmp/Sample013/img013-00111
GoodImg/Bmp/Sample013/img013-00132
GoodImg/Bmp/Sample013/img013-00143
GoodImg/Bmp/Sample013/img013-00207
GoodImg/Bmp/Sample013/img013-00209
GoodImg/Bmp/Sample014/img014-00001
GoodImg/Bmp/Sample014/img014-00028
GoodImg/Bmp/Sample014/img014-00041
GoodImg/Bmp/Sample014/img014-00048
GoodImg/Bmp/Sample014/img014-00055
GoodImg/Bmp/Sample014/img014-00060
GoodImg/Bmp/Sample014/img014-00069
GoodImg/Bmp/Sample014/img014-00093
GoodImg/Bmp/Sample014/img014-00094
GoodImg/Bmp/Sample014/img014-00095
GoodImg/Bmp/Sample014/img014-00122
GoodImg/Bmp/Sample014/img014-00143
GoodImg/Bmp/Sample014/img014-00146
GoodImg/Bmp/Sample014/img014-00159
GoodImg/Bmp/Sample014/img014-00188
GoodImg/Bmp/Sample015/img015-00032
GoodImg/Bmp/Sample015/img015-00049
GoodImg/Bmp/Sample015/img015-00050
GoodImg/Bmp/Sample015/img015-00093
GoodImg/Bmp/Sample015/img015-00177
GoodImg/Bmp/Sample015/img015-00190
GoodImg/Bmp/Sample015/img015-00194
GoodImg/Bmp/Sample015/img015-00207
GoodImg/Bmp/Sample015/img015-00212
GoodImg/Bmp/Sample015/img015-00274
GoodImg/Bmp/Sample015/img015-00327
GoodImg/Bmp/Sample015/img015-00347
GoodImg/Bmp/Sample015/img015-00368
GoodImg/Bmp/Sample015/img015-00410
GoodImg/Bmp/Sample015/img015-00446
GoodImg/Bmp/Sample016/img016-00004
GoodImg/Bmp/Sample016/img016-00013
GoodImg/Bmp/Sample016/img016-00020
GoodImg/Bmp/Sample016/img016-00022
GoodImg/Bmp/Sample016/img016-00024
GoodImg/Bmp/Sample016/img016-00035
GoodImg/Bmp/Sample016/img016-00036
GoodImg/Bmp/Sample016/img016-00049
GoodImg/Bmp/Sample016/img016-00052
GoodImg/Bmp/Sample016/img016-00058
GoodImg/Bmp/Sample016/img016-00062
GoodImg/Bmp/Sample016/img016-00063
GoodImg/Bmp/Sample016/img016-00070
GoodImg/Bmp/Sample016/img016-00077
GoodImg/Bmp/Sample016/img016-00078
GoodImg/Bmp/Sample017/img017-00005
GoodImg/Bmp/Sample017/img017-00023
GoodImg/Bmp/Sample017/img017-00032
GoodImg/Bmp/Sample017/img017-00042
GoodImg/Bmp/Sample017/img017-00055
GoodImg/Bmp/Sample017/img017-00057
GoodImg/Bmp/Sample017/img017-00065
GoodImg/Bmp/Sample017/img017-00067
GoodImg/Bmp/Sample017/img017-00070
GoodImg/Bmp/Sample017/img017-00076
GoodImg/Bmp/Sample017/img017-00086
GoodImg/Bmp/Sample017/img017-00106
GoodImg/Bmp/Sample017/img017-00115
GoodImg/Bmp/Sample017/img017-00120
GoodImg/Bmp/Sample017/img017-00138
GoodImg/Bmp/Sample018/img018-00011
GoodImg/Bmp/Sample018/img018-00024
GoodImg/Bmp/Sample018/img018-00050
GoodImg/Bmp/Sample018/img018-00051
GoodImg/Bmp/Sample018/img018-00059
GoodImg/Bmp/Sample018/img018-00061
GoodImg/Bmp/Sample018/img018-00072
GoodImg/Bmp/Sample018/img018-00091
GoodImg/Bmp/Sample018/img018-00100
GoodImg/Bmp/Sample018/img018-00131
GoodImg/Bmp/Sample018/img018-00139
GoodImg/Bmp/Sample018/img018-00156
GoodImg/Bmp/Sample018/img018-00159
GoodImg/Bmp/Sample018/img018-00179
GoodImg/Bmp/Sample018/img018-00182
GoodImg/Bmp/Sample019/img019-00037
GoodImg/Bmp/Sample019/img019-00081
GoodImg/Bmp/Sample019/img019-00083
GoodImg/Bmp/Sample019/img019-00093
GoodImg/Bmp/Sample019/img019-00100
GoodImg/Bmp/Sample019/img019-00119
GoodImg/Bmp/Sample019/img019-00123
GoodImg/Bmp/Sample019/img019-00155
GoodImg/Bmp/Sample019/img019-00173
GoodImg/Bmp/Sample019/img019-00183
GoodImg/Bmp/Sample019/img019-00215
GoodImg/Bmp/Sample019/img019-00238
GoodImg/Bmp/Sample019/img019-00259
GoodImg/Bmp/Sample019/img019-00277
GoodImg/Bmp/Sample019/img019-00285
GoodImg/Bmp/Sample020/img020-00009
GoodImg/Bmp/Sample020/img020-00013
GoodImg/Bmp/Sample020/img020-00022
GoodImg/Bmp/Sample020/img020-00024
GoodImg/Bmp/Sample020/img020-00028
GoodImg/Bmp/Sample020/img020-00035
GoodImg/Bmp/Sample020/img020-00038
GoodImg/Bmp/Sample020/img020-00040
GoodImg/Bmp/Sample020/img020-00043
GoodImg/Bmp/Sample020/img020-00044
GoodImg/Bmp/Sample020/img020-00049
GoodImg/Bmp/Sample020/img020-00053
GoodImg/Bmp/Sample020/img020-00059
GoodImg/Bmp/Sample020/img020-00060
GoodImg/Bmp/Sample020/img020-00073
GoodImg/Bmp/Sample021/img021-00008
GoodImg/Bmp/Sample021/img021-00011
GoodImg/Bmp/Sample021/img021-00018
GoodImg/Bmp/Sample021/img021-00019
GoodImg/Bmp/Sample021/img021-00022
GoodImg/Bmp/Sample021/img021-00028
GoodImg/Bmp/Sample021/img021-00040
GoodImg/Bmp/Sample021/img021-00044
GoodImg/Bmp/Sample021/img021-00045
GoodImg/Bmp/Sample021/img021-00058
GoodImg/Bmp/Sample021/img021-00062
GoodImg/Bmp/Sample021/img021-00067
GoodImg/Bmp/Sample021/img021-00070
GoodImg/Bmp/Sample021/img021-00076
GoodImg/Bmp/Sample021/img021-00091
GoodImg/Bmp/Sample022/img022-00013
GoodImg/Bmp/Sample022/img022-00017
GoodImg/Bmp/Sample022/img022-00068
GoodImg/Bmp/Sample022/img022-00080
GoodImg/Bmp/Sample022/img022-00090
GoodImg/Bmp/Sample022/img022-00110
GoodImg/Bmp/Sample022/img022-00132
GoodImg/Bmp/Sample022/img022-00157
GoodImg/Bmp/Sample022/img022-00161
GoodImg/Bmp/Sample022/img022-00173
GoodImg/Bmp/Sample022/img022-00176
GoodImg/Bmp/Sample022/img022-00178
GoodImg/Bmp/Sample022/img022-00184
GoodImg/Bmp/Sample022/img022-00206
GoodImg/Bmp/Sample022/img022-00214
GoodImg/Bmp/Sample023/img023-00004
GoodImg/Bmp/Sample023/img023-00005
GoodImg/Bmp/Sample023/img023-00016
GoodImg/Bmp/Sample023/img023-00029
GoodImg/Bmp/Sample023/img023-00052
GoodImg/Bmp/Sample023/img023-00054
GoodImg/Bmp/Sample023/img023-00059
GoodImg/Bmp/Sample023/img023-00079
GoodImg/Bmp/Sample023/img023-00084
GoodImg/Bmp/Sample023/img023-00092
GoodImg/Bmp/Sample023/img023-00102
GoodImg/Bmp/Sample023/img023-00125
GoodImg/Bmp/Sample023/img023-00127
GoodImg/Bmp/Sample023/img023-00134
GoodImg/Bmp/Sample023/img023-00141
GoodImg/Bmp/Sample024/img024-00002
GoodImg/Bmp/Sample024/img024-00033
GoodImg/Bmp/Sample024/img024-00058
GoodImg/Bmp/Sample024/img024-00100
GoodImg/Bmp/Sample024/img024-00116
GoodImg/Bmp/Sample024/img024-00167
GoodImg/Bmp/Sample024/img024-00183
GoodImg/Bmp/Sample024/img024-00193
GoodImg/Bmp/Sample024/img024-00208
GoodImg/Bmp/Sample024/img024-00221
GoodImg/Bmp/Sample024/img024-00252
GoodImg/Bmp/Sample024/img024-00264
GoodImg/Bmp/Sample024/img024-00301
GoodImg/Bmp/Sample024/img024-00341
GoodImg/Bmp/Sample024/img024-00344
GoodImg/Bmp/Sample025/img025-00029
GoodImg/Bmp/Sample025/img025-00049
GoodImg/Bmp/Sample025/img025-00054
GoodImg/Bmp/Sample025/img025-00085
GoodImg/Bmp/Sample025/img025-00123
GoodImg/Bmp/Sample025/img025-00155
GoodImg/Bmp/Sample025/img025-00164
GoodImg/Bmp/Sample025/img025-00184
GoodImg/Bmp/Sample025/img025-00197
GoodImg/Bmp/Sample025/img025-00214
GoodImg/Bmp/Sample025/img025-00239
GoodImg/Bmp/Sample025/img025-00247
GoodImg/Bmp/Sample025/img025-00299
GoodImg/Bmp/Sample025/img025-00310
GoodImg/Bmp/Sample025/img025-00339
GoodImg/Bmp/Sample026/img026-00004
GoodImg/Bmp/Sample026/img026-00006
GoodImg/Bmp/Sample026/img026-00011
GoodImg/Bmp/Sample026/img026-00028
GoodImg/Bmp/Sample026/img026-00045
GoodImg/Bmp/Sample026/img026-00051
GoodImg/Bmp/Sample026/img026-00075
GoodImg/Bmp/Sample026/img026-00089
GoodImg/Bmp/Sample026/img026-00092
GoodImg/Bmp/Sample026/img026-00095
GoodImg/Bmp/Sample026/img026-00101
GoodImg/Bmp/Sample026/img026-00102
GoodImg/Bmp/Sample026/img026-00116
GoodImg/Bmp/Sample026/img026-00133
GoodImg/Bmp/Sample026/img026-00153
GoodImg/Bmp/Sample027/img027-00003
GoodImg/Bmp/Sample027/img027-00007
GoodImg/Bmp/Sample027/img027-00008
GoodImg/Bmp/Sample027/img027-00010
GoodImg/Bmp/Sample027/img027-00011
GoodImg/Bmp/Sample027/img027-00012
GoodImg/Bmp/Sample027/img027-00014
GoodImg/Bmp/Sample027/img027-00016
GoodImg/Bmp/Sample027/img027-00018
GoodImg/Bmp/Sample027/img027-00019
GoodImg/Bmp/Sample027/img027-00021
GoodImg/Bmp/Sample027/img027-00027
GoodImg/Bmp/Sample027/img027-00028
GoodImg/Bmp/Sample027/img027-00031
GoodImg/Bmp/Sample027/img027-00032
GoodImg/Bmp/Sample028/img028-00057
GoodImg/Bmp/Sample028/img028-00079
GoodImg/Bmp/Sample028/img028-00095
GoodImg/Bmp/Sample028/img028-00097
GoodImg/Bmp/Sample028/img028-00123
GoodImg/Bmp/Sample028/img028-00124
GoodImg/Bmp/Sample028/img028-00130
GoodImg/Bmp/Sample028/img028-00141
GoodImg/Bmp/Sample028/img028-00143
GoodImg/Bmp/Sample028/img028-00156
GoodImg/Bmp/Sample028/img028-00179
GoodImg/Bmp/Sample028/img028-00230
GoodImg/Bmp/Sample028/img028-00261
GoodImg/Bmp/Sample028/img028-00331
GoodImg/Bmp/Sample028/img028-00354
GoodImg/Bmp/Sample029/img029-00022
GoodImg/Bmp/Sample029/img029-00077
GoodImg/Bmp/Sample029/img029-00101
GoodImg/Bmp/Sample029/img029-00169
GoodImg/Bmp/Sample029/img029-00190
GoodImg/Bmp/Sample029/img029-00199
GoodImg/Bmp/Sample029/img029-00215
GoodImg/Bmp/Sample029/img029-00222
GoodImg/Bmp/Sample029/img029-00245
GoodImg/Bmp/Sample029/img029-00272
GoodImg/Bmp/Sample029/img029-00273
GoodImg/Bmp/Sample029/img029-00276
GoodImg/Bmp/Sample029/img029-00308
GoodImg/Bmp/Sample029/img029-00311
GoodImg/Bmp/Sample029/img029-00330
GoodImg/Bmp/Sample030/img030-00002
GoodImg/Bmp/Sample030/img030-00016
GoodImg/Bmp/Sample030/img030-00040
GoodImg/Bmp/Sample030/img030-00051
GoodImg/Bmp/Sample030/img030-00057
GoodImg/Bmp/Sample030/img030-00076
GoodImg/Bmp/Sample030/img030-00091
GoodImg/Bmp/Sample030/img030-00092
GoodImg/Bmp/Sample030/img030-00123
GoodImg/Bmp/Sample030/img030-00156
GoodImg/Bmp/Sample030/img030-00171
GoodImg/Bmp/Sample030/img030-00253
GoodImg/Bmp/Sample030/img030-00258
GoodImg/Bmp/Sample030/img030-00262
GoodImg/Bmp/Sample030/img030-00293
GoodImg/Bmp/Sample031/img031-00010
GoodImg/Bmp/Sample031/img031-00011
GoodImg/Bmp/Sample031/img031-00014
GoodImg/Bmp/Sample031/img031-00020
GoodImg/Bmp/Sample031/img031-00031
GoodImg/Bmp/Sample031/img031-00047
GoodImg/Bmp/Sample031/img031-00048
GoodImg/Bmp/Sample031/img031-00050
GoodImg/Bmp/Sample031/img031-00052
GoodImg/Bmp/Sample031/img031-00054
GoodImg/Bmp/Sample031/img031-00059
GoodImg/Bmp/Sample031/img031-00063
GoodImg/Bmp/Sample031/img031-00073
GoodImg/Bmp/Sample031/img031-00081
GoodImg/Bmp/Sample031/img031-00089
GoodImg/Bmp/Sample032/img032-00002
GoodImg/Bmp/Sample032/img032-00007
GoodImg/Bmp/Sample032/img032-00015
GoodImg/Bmp/Sample032/img032-00018
GoodImg/Bmp/Sample032/img032-00025
GoodImg/Bmp/Sample032/img032-00030
GoodImg/Bmp/Sample032/img032-00038
GoodImg/Bmp/Sample032/img032-00053
GoodImg/Bmp/Sample032/img032-00056
GoodImg/Bmp/Sample032/img032-00067
GoodImg/Bmp/Sample032/img032-00068
GoodImg/Bmp/Sample032/img032-00071
GoodImg/Bmp/Sample032/img032-00072
GoodImg/Bmp/Sample032/img032-00073
GoodImg/Bmp/Sample032/img032-00084
GoodImg/Bmp/Sample033/img033-00001
GoodImg/Bmp/Sample033/img033-00006
GoodImg/Bmp/Sample033/img033-00010
GoodImg/Bmp/Sample033/img033-00015
GoodImg/Bmp/Sample033/img033-00019
GoodImg/Bmp/Sample033/img033-00034
GoodImg/Bmp/Sample033/img033-00035
GoodImg/Bmp/Sample033/img033-00040
GoodImg/Bmp/Sample033/img033-00043
GoodImg/Bmp/Sample033/img033-00044
GoodImg/Bmp/Sample033/img033-00050
GoodImg/Bmp/Sample033/img033-00053
GoodImg/Bmp/Sample033/img033-00058
GoodImg/Bmp/Sample033/img033-00060
GoodImg/Bmp/Sample033/img033-00061
GoodImg/Bmp/Sample034/img034-00002
GoodImg/Bmp/Sample034/img034-00004
GoodImg/Bmp/Sample034/img034-00005
GoodImg/Bmp/Sample034/img034-00009
GoodImg/Bmp/Sample034/img034-00017
GoodImg/Bmp/Sample034/img034-00034
GoodImg/Bmp/Sample034/img034-00035
GoodImg/Bmp/Sample034/img034-00039
GoodImg/Bmp/Sample034/img034-00043
GoodImg/Bmp/Sample034/img034-00052
GoodImg/Bmp/Sample034/img034-00053
GoodImg/Bmp/Sample034/img034-00054
GoodImg/Bmp/Sample034/img034-00057
GoodImg/Bmp/Sample034/img034-00072
GoodImg/Bmp/Sample034/img034-00075
GoodImg/Bmp/Sample035/img035-00001
GoodImg/Bmp/Sample035/img035-00003
GoodImg/Bmp/Sample035/img035-00010
GoodImg/Bmp/Sample035/img035-00012
GoodImg/Bmp/Sample035/img035-00015
GoodImg/Bmp/Sample035/img035-00024
GoodImg/Bmp/Sample035/img035-00026
GoodImg/Bmp/Sample035/img035-00036
GoodImg/Bmp/Sample035/img035-00037
GoodImg/Bmp/Sample035/img035-00043
GoodImg/Bmp/Sample035/img035-00044
GoodImg/Bmp/Sample035/img035-00048
GoodImg/Bmp/Sample035/img035-00056
GoodImg/Bmp/Sample035/img035-00057
GoodImg/Bmp/Sample035/img035-00066
GoodImg/Bmp/Sample036/img036-00002
GoodImg/Bmp/Sample036/img036-00003
GoodImg/Bmp/Sample036/img036-00007
GoodImg/Bmp/Sample036/img036-00008
GoodImg/Bmp/Sample036/img036-00012
GoodImg/Bmp/Sample036/img036-00013
GoodImg/Bmp/Sample036/img036-00014
GoodImg/Bmp/Sample036/img036-00019
GoodImg/Bmp/Sample036/img036-00023
GoodImg/Bmp/Sample036/img036-00031
GoodImg/Bmp/Sample036/img036-00041
GoodImg/Bmp/Sample036/img036-00042
GoodImg/Bmp/Sample036/img036-00045
GoodImg/Bmp/Sample036/img036-00049
GoodImg/Bmp/Sample036/img036-00054
GoodImg/Bmp/Sample037/img037-00011
GoodImg/Bmp/Sample037/img037-00042
GoodImg/Bmp/Sample037/img037-00053
GoodImg/Bmp/Sample037/img037-00058
GoodImg/Bmp/Sample037/img037-00066
GoodImg/Bmp/Sample037/img037-00067
GoodImg/Bmp/Sample037/img037-00072
GoodImg/Bmp/Sample037/img037-00087
GoodImg/Bmp/Sample037/img037-00094
GoodImg/Bmp/Sample037/img037-00106
GoodImg/Bmp/Sample037/img037-00118
GoodImg/Bmp/Sample037/img037-00122
GoodImg/Bmp/Sample037/img037-00152
GoodImg/Bmp/Sample037/img037-00156
GoodImg/Bmp/Sample037/img037-00157
GoodImg/Bmp/Sample038/img038-00003
GoodImg/Bmp/Sample038/img038-00007
GoodImg/Bmp/Sample038/img038-00012
GoodImg/Bmp/Sample038/img038-00014
GoodImg/Bmp/Sample038/img038-00015
GoodImg/Bmp/Sample038/img038-00017
GoodImg/Bmp/Sample038/img038-00020
GoodImg/Bmp/Sample038/img038-00021
GoodImg/Bmp/Sample038/img038-00023
GoodImg/Bmp/Sample038/img038-00024
GoodImg/Bmp/Sample038/img038-00025
GoodImg/Bmp/Sample038/img038-00030
GoodImg/Bmp/Sample038/img038-00032
GoodImg/Bmp/Sample038/img038-00036
GoodImg/Bmp/Sample038/img038-00037
GoodImg/Bmp/Sample039/img039-00001
GoodImg/Bmp/Sample039/img039-00002
GoodImg/Bmp/Sample039/img039-00016
GoodImg/Bmp/Sample039/img039-00019
GoodImg/Bmp/Sample039/img039-00023
GoodImg/Bmp/Sample039/img039-00027
GoodImg/Bmp/Sample039/img039-00029
GoodImg/Bmp/Sample039/img039-00043
GoodImg/Bmp/Sample039/img039-00045
GoodImg/Bmp/Sample039/img039-00048
GoodImg/Bmp/Sample039/img039-00051
GoodImg/Bmp/Sample039/img039-00052
GoodImg/Bmp/Sample039/img039-00055
GoodImg/Bmp/Sample039/img039-00056
GoodImg/Bmp/Sample039/img039-00059
GoodImg/Bmp/Sample040/img040-00004
GoodImg/Bmp/Sample040/img040-00006
GoodImg/Bmp/Sample040/img040-00008
GoodImg/Bmp/Sample040/img040-00013
GoodImg/Bmp/Sample040/img040-00014
GoodImg/Bmp/Sample040/img040-00017
GoodImg/Bmp/Sample040/img040-00018
GoodImg/Bmp/Sample040/img040-00022
GoodImg/Bmp/Sample040/img040-00024
GoodImg/Bmp/Sample040/img040-00026
GoodImg/Bmp/Sample040/img040-00028
GoodImg/Bmp/Sample040/img040-00034
GoodImg/Bmp/Sample040/img040-00037
GoodImg/Bmp/Sample040/img040-00038
GoodImg/Bmp/Sample040/img040-00039
GoodImg/Bmp/Sample041/img041-00059
GoodImg/Bmp/Sample041/img041-00062
GoodImg/Bmp/Sample041/img041-00063
GoodImg/Bmp/Sample041/img041-00065
GoodImg/Bmp/Sample041/img041-00074
GoodImg/Bmp/Sample041/img041-00092
GoodImg/Bmp/Sample041/img041-00099
GoodImg/Bmp/Sample041/img041-00102
GoodImg/Bmp/Sample041/img041-00128
GoodImg/Bmp/Sample041/img041-00132
GoodImg/Bmp/Sample041/img041-00145
GoodImg/Bmp/Sample041/img041-00202
GoodImg/Bmp/Sample041/img041-00204
GoodImg/Bmp/Sample041/img041-00215
GoodImg/Bmp/Sample041/img041-00225
GoodImg/Bmp/Sample042/img042-00002
GoodImg/Bmp/Sample042/img042-00005
GoodImg/Bmp/Sample042/img042-00007
GoodImg/Bmp/Sample042/img042-00011
GoodImg/Bmp/Sample042/img042-00014
GoodImg/Bmp/Sample042/img042-00016
GoodImg/Bmp/Sample042/img042-00017
GoodImg/Bmp/Sample042/img042-00019
GoodImg/Bmp/Sample042/img042-00026
GoodImg/Bmp/Sample042/img042-00028
GoodImg/Bmp/Sample042/img042-00032
GoodImg/Bmp/Sample042/img042-00034
GoodImg/Bmp/Sample042/img042-00035
GoodImg/Bmp/Sample042/img042-00036
GoodImg/Bmp/Sample042/img042-00037
GoodImg/Bmp/Sample043/img043-00001
GoodImg/Bmp/Sample043/img043-00004
GoodImg/Bmp/Sample043/img043-00005
GoodImg/Bmp/Sample043/img043-00006
GoodImg/Bmp/Sample043/img043-00007
GoodImg/Bmp/Sample043/img043-00009
GoodImg/Bmp/Sample043/img043-00020
GoodImg/Bmp/Sample043/img043-00021
GoodImg/Bmp/Sample043/img043-00022
GoodImg/Bmp/Sample043/img043-00024
GoodImg/Bmp/Sample043/img043-00026
GoodImg/Bmp/Sample043/img043-00030
GoodImg/Bmp/Sample043/img043-00032
GoodImg/Bmp/Sample043/img043-00033
GoodImg/Bmp/Sample043/img043-00035
GoodImg/Bmp/Sample044/img044-00002
GoodImg/Bmp/Sample044/img044-00005
GoodImg/Bmp/Sample044/img044-00009
GoodImg/Bmp/Sample044/img044-00012
GoodImg/Bmp/Sample044/img044-00013
GoodImg/Bmp/Sample044/img044-00014
GoodImg/Bmp/Sample044/img044-00019
GoodImg/Bmp/Sample044/img044-00023
GoodImg/Bmp/Sample044/img044-00027
GoodImg/Bmp/Sample044/img044-00028
GoodImg/Bmp/Sample044/img044-00034
GoodImg/Bmp/Sample044/img044-00037
GoodImg/Bmp/Sample044/img044-00038
GoodImg/Bmp/Sample044/img044-00045
GoodImg/Bmp/Sample044/img044-00050
GoodImg/Bmp/Sample045/img045-00002
GoodImg/Bmp/Sample045/img045-00013
GoodImg/Bmp/Sample045/img045-00014
GoodImg/Bmp/Sample045/img045-00023
GoodImg/Bmp/Sample045/img045-00033
GoodImg/Bmp/Sample045/img045-00041
GoodImg/Bmp/Sample045/img045-00051
GoodImg/Bmp/Sample045/img045-00052
GoodImg/Bmp/Sample045/img045-00066
GoodImg/Bmp/Sample045/img045-00071
GoodImg/Bmp/Sample045/img045-00072
GoodImg/Bmp/Sample045/img045-00083
GoodImg/Bmp/Sample045/img045-00090
GoodImg/Bmp/Sample045/img045-00097
GoodImg/Bmp/Sample045/img045-00109
GoodImg/Bmp/Sample046/img046-00003
GoodImg/Bmp/Sample046/img046-00007
GoodImg/Bmp/Sample046/img046-00008
GoodImg/Bmp/Sample046/img046-00010
GoodImg/Bmp/Sample046/img046-00011
GoodImg/Bmp/Sample046/img046-00016
GoodImg/Bmp/Sample046/img046-00017
GoodImg/Bmp/Sample046/img046-00018
GoodImg/Bmp/Sample046/img046-00021
GoodImg/Bmp/Sample046/img046-00023
GoodImg/Bmp/Sample046/img046-00024
GoodImg/Bmp/Sample046/img046-00026
GoodImg/Bmp/Sample046/img046-00028
GoodImg/Bmp/Sample046/img046-00030
GoodImg/Bmp/Sample046/img046-00032
GoodImg/Bmp/Sample047/img047-00003
GoodImg/Bmp/Sample047/img047-00008
GoodImg/Bmp/Sample047/img047-00010
GoodImg/Bmp/Sample047/img047-00014
GoodImg/Bmp/Sample047/img047-00016
GoodImg/Bmp/Sample047/img047-00018
GoodImg/Bmp/Sample047/img047-00019
GoodImg/Bmp/Sample047/img047-00020
GoodImg/Bmp/Sample047/img047-00022
GoodImg/Bmp/Sample047/img047-00024
GoodImg/Bmp/Sample047/img047-00025
GoodImg/Bmp/Sample047/img047-00030
GoodImg/Bmp/Sample047/img047-00031
GoodImg/Bmp/Sample047/img047-00032
GoodImg/Bmp/Sample047/img047-00034
GoodImg/Bmp/Sample048/img048-00001
GoodImg/Bmp/Sample048/img048-00005
GoodImg/Bmp/Sample048/img048-00006
GoodImg/Bmp/Sample048/img048-00010
GoodImg/Bmp/Sample048/img048-00014
GoodImg/Bmp/Sample048/img048-00016
GoodImg/Bmp/Sample048/img048-00017
GoodImg/Bmp/Sample048/img048-00021
GoodImg/Bmp/Sample048/img048-00029
GoodImg/Bmp/Sample048/img048-00037
GoodImg/Bmp/Sample048/img048-00038
GoodImg/Bmp/Sample048/img048-00043
GoodImg/Bmp/Sample048/img048-00046
GoodImg/Bmp/Sample048/img048-00050
GoodImg/Bmp/Sample048/img048-00052
GoodImg/Bmp/Sample049/img049-00001
GoodImg/Bmp/Sample049/img049-00002
GoodImg/Bmp/Sample049/img049-00004
GoodImg/Bmp/Sample049/img049-00005
GoodImg/Bmp/Sample049/img049-00007
GoodImg/Bmp/Sample049/img049-00010
GoodImg/Bmp/Sample049/img049-00011
GoodImg/Bmp/Sample049/img049-00012
GoodImg/Bmp/Sample049/img049-00015
GoodImg/Bmp/Sample049/img049-00020
GoodImg/Bmp/Sample049/img049-00025
GoodImg/Bmp/Sample049/img049-00026
GoodImg/Bmp/Sample049/img049-00031
GoodImg/Bmp/Sample049/img049-00034
GoodImg/Bmp/Sample049/img049-00039
GoodImg/Bmp/Sample050/img050-00004
GoodImg/Bmp/Sample050/img050-00019
GoodImg/Bmp/Sample050/img050-00025
GoodImg/Bmp/Sample050/img050-00027
GoodImg/Bmp/Sample050/img050-00038
GoodImg/Bmp/Sample050/img050-00060
GoodImg/Bmp/Sample050/img050-00066
GoodImg/Bmp/Sample050/img050-00071
GoodImg/Bmp/Sample050/img050-00088
GoodImg/Bmp/Sample050/img050-00103
GoodImg/Bmp/Sample050/img050-00105
GoodImg/Bmp/Sample050/img050-00125
GoodImg/Bmp/Sample050/img050-00129
GoodImg/Bmp/Sample050/img050-00131
GoodImg/Bmp/Sample050/img050-00134
GoodImg/Bmp/Sample051/img051-00003
GoodImg/Bmp/Sample051/img051-00042
GoodImg/Bmp/Sample051/img051-00044
GoodImg/Bmp/Sample051/img051-00056
GoodImg/Bmp/Sample051/img051-00065
GoodImg/Bmp/Sample051/img051-00084
GoodImg/Bmp/Sample051/img051-00098
GoodImg/Bmp/Sample051/img051-00099
GoodImg/Bmp/Sample051/img051-00102
GoodImg/Bmp/Sample051/img051-00115
GoodImg/Bmp/Sample051/img051-00117
GoodImg/Bmp/Sample051/img051-00143
GoodImg/Bmp/Sample051/img051-00144
GoodImg/Bmp/Sample051/img051-00146
GoodImg/Bmp/Sample051/img051-00147
GoodImg/Bmp/Sample052/img052-00003
GoodImg/Bmp/Sample052/img052-00005
GoodImg/Bmp/Sample052/img052-00007
GoodImg/Bmp/Sample052/img052-00013
GoodImg/Bmp/Sample052/img052-00014
GoodImg/Bmp/Sample052/img052-00015
GoodImg/Bmp/Sample052/img052-00016
GoodImg/Bmp/Sample052/img052-00022
GoodImg/Bmp/Sample052/img052-00023
GoodImg/Bmp/Sample052/img052-00024
GoodImg/Bmp/Sample052/img052-00025
GoodImg/Bmp/Sample052/img052-00028
GoodImg/Bmp/Sample052/img052-00034
GoodImg/Bmp/Sample052/img052-00036
GoodImg/Bmp/Sample052/img052-00037
GoodImg/Bmp/Sample053/img053-00001
GoodImg/Bmp/Sample053/img053-00009
GoodImg/Bmp/Sample053/img053-00014
GoodImg/Bmp/Sample053/img053-00017
GoodImg/Bmp/Sample053/img053-00019
GoodImg/Bmp/Sample053/img053-00024
GoodImg/Bmp/Sample053/img053-00026
GoodImg/Bmp/Sample053/img053-00029
GoodImg/Bmp/Sample053/img053-00030
GoodImg/Bmp/Sample053/img053-00031
GoodImg/Bmp/Sample053/img053-00037
GoodImg/Bmp/Sample053/img053-00038
GoodImg/Bmp/Sample053/img053-00045
GoodImg/Bmp/Sample053/img053-00050
GoodImg/Bmp/Sample053/img053-00051
GoodImg/Bmp/Sample054/img054-00007
GoodImg/Bmp/Sample054/img054-00011
GoodImg/Bmp/Sample054/img054-00027
GoodImg/Bmp/Sample054/img054-00042
GoodImg/Bmp/Sample054/img054-00043
GoodImg/Bmp/Sample054/img054-00049
GoodImg/Bmp/Sample054/img054-00052
GoodImg/Bmp/Sample054/img054-00053
GoodImg/Bmp/Sample054/img054-00072
GoodImg/Bmp/Sample054/img054-00079
GoodImg/Bmp/Sample054/img054-00091
GoodImg/Bmp/Sample054/img054-00098
GoodImg/Bmp/Sample054/img054-00101
GoodImg/Bmp/Sample054/img054-00109
GoodImg/Bmp/Sample054/img054-00123
GoodImg/Bmp/Sample055/img055-00005
GoodImg/Bmp/Sample055/img055-00027
GoodImg/Bmp/Sample055/img055-00042
GoodImg/Bmp/Sample055/img055-00043
GoodImg/Bmp/Sample055/img055-00045
GoodImg/Bmp/Sample055/img055-00047
GoodImg/Bmp/Sample055/img055-00048
GoodImg/Bmp/Sample055/img055-00050
GoodImg/Bmp/Sample055/img055-00061
GoodImg/Bmp/Sample055/img055-00064
GoodImg/Bmp/Sample055/img055-00067
GoodImg/Bmp/Sample055/img055-00069
GoodImg/Bmp/Sample055/img055-00079
GoodImg/Bmp/Sample055/img055-00082
GoodImg/Bmp/Sample055/img055-00105
GoodImg/Bmp/Sample056/img056-00002
GoodImg/Bmp/Sample056/img056-00004
GoodImg/Bmp/Sample056/img056-00006
GoodImg/Bmp/Sample056/img056-00014
GoodImg/Bmp/Sample056/img056-00022
GoodImg/Bmp/Sample056/img056-00023
GoodImg/Bmp/Sample056/img056-00027
GoodImg/Bmp/Sample056/img056-00049
GoodImg/Bmp/Sample056/img056-00054
GoodImg/Bmp/Sample056/img056-00057
GoodImg/Bmp/Sample056/img056-00076
GoodImg/Bmp/Sample056/img056-00082
GoodImg/Bmp/Sample056/img056-00086
GoodImg/Bmp/Sample056/img056-00100
GoodImg/Bmp/Sample056/img056-00111
GoodImg/Bmp/Sample057/img057-00005
GoodImg/Bmp/Sample057/img057-00007
GoodImg/Bmp/Sample057/img057-00008
GoodImg/Bmp/Sample057/img057-00009
GoodImg/Bmp/Sample057/img057-00010
GoodImg/Bmp/Sample057/img057-00012
GoodImg/Bmp/Sample057/img057-00013
GoodImg/Bmp/Sample057/img057-00014
GoodImg/Bmp/Sample057/img057-00015
GoodImg/Bmp/Sample057/img057-00017
GoodImg/Bmp/Sample057/img057-00020
GoodImg/Bmp/Sample057/img057-00021
GoodImg/Bmp/Sample057/img057-00035
GoodImg/Bmp/Sample057/img057-00037
GoodImg/Bmp/Sample057/img057-00041
GoodImg/Bmp/Sample058/img058-00006
GoodImg/Bmp/Sample058/img058-00009
GoodImg/Bmp/Sample058/img058-00011
GoodImg/Bmp/Sample058/img058-00012
GoodImg/Bmp/Sample058/img058-00014
GoodImg/Bmp/Sample058/img058-00015
GoodImg/Bmp/Sample058/img058-00017
GoodImg/Bmp/Sample058/img058-00018
GoodImg/Bmp/Sample058/img058-00020
GoodImg/Bmp/Sample058/img058-00023
GoodImg/Bmp/Sample058/img058-00025
GoodImg/Bmp/Sample058/img058-00026
GoodImg/Bmp/Sample058/img058-00027
GoodImg/Bmp/Sample058/img058-00028
GoodImg/Bmp/Sample058/img058-00029
GoodImg/Bmp/Sample059/img059-00003
GoodImg/Bmp/Sample059/img059-00004
GoodImg/Bmp/Sample059/img059-00007
GoodImg/Bmp/Sample059/img059-00010
GoodImg/Bmp/Sample059/img059-00012
GoodImg/Bmp/Sample059/img059-00013
GoodImg/Bmp/Sample059/img059-00016
GoodImg/Bmp/Sample059/img059-00017
GoodImg/Bmp/Sample059/img059-00018
GoodImg/Bmp/Sample059/img059-00019
GoodImg/Bmp/Sample059/img059-00022
GoodImg/Bmp/Sample059/img059-00030
GoodImg/Bmp/Sample059/img059-00033
GoodImg/Bmp/Sample059/img059-00035
GoodImg/Bmp/Sample059/img059-00036
GoodImg/Bmp/Sample060/img060-00001
GoodImg/Bmp/Sample060/img060-00007
GoodImg/Bmp/Sample060/img060-00010
GoodImg/Bmp/Sample060/img060-00012
GoodImg/Bmp/Sample060/img060-00013
GoodImg/Bmp/Sample060/img060-00016
GoodImg/Bmp/Sample060/img060-00020
GoodImg/Bmp/Sample060/img060-00021
GoodImg/Bmp/Sample060/img060-00022
GoodImg/Bmp/Sample060/img060-00026
GoodImg/Bmp/Sample060/img060-00027
GoodImg/Bmp/Sample060/img060-00028
GoodImg/Bmp/Sample060/img060-00030
GoodImg/Bmp/Sample060/img060-00034
GoodImg/Bmp/Sample060/img060-00035
GoodImg/Bmp/Sample061/img061-00001
GoodImg/Bmp/Sample061/img061-00002
GoodImg/Bmp/Sample061/img061-00004
GoodImg/Bmp/Sample061/img061-00006
GoodImg/Bmp/Sample061/img061-00012
GoodImg/Bmp/Sample061/img061-00014
GoodImg/Bmp/Sample061/img061-00015
GoodImg/Bmp/Sample061/img061-00017
GoodImg/Bmp/Sample061/img061-00020
GoodImg/Bmp/Sample061/img061-00024
GoodImg/Bmp/Sample061/img061-00027
GoodImg/Bmp/Sample061/img061-00031
GoodImg/Bmp/Sample061/img061-00032
GoodImg/Bmp/Sample061/img061-00034
GoodImg/Bmp/Sample061/img061-00040
GoodImg/Bmp/Sample062/img062-00001
GoodImg/Bmp/Sample062/img062-00004
GoodImg/Bmp/Sample062/img062-00007
GoodImg/Bmp/Sample062/img062-00008
GoodImg/Bmp/Sample062/img062-00009
GoodImg/Bmp/Sample062/img062-00013
GoodImg/Bmp/Sample062/img062-00014
GoodImg/Bmp/Sample062/img062-00015
GoodImg/Bmp/Sample062/img062-00019
GoodImg/Bmp/Sample062/img062-00020
GoodImg/Bmp/Sample062/img062-00022
GoodImg/Bmp/Sample062/img062-00027
GoodImg/Bmp/Sample062/img062-00030
GoodImg/Bmp/Sample062/img062-00033
GoodImg/Bmp/Sample062/img062-00035